{"response":{"status":"ok","userTier":"developer","total":26051,"startIndex":1,"pageSize":10,"currentPage":1,"pages":2606,"orderBy":"relevance","results":[{"id":"politics/2018/jul/09/brexit-developments-or-not","type":"article","sectionId":"politics","sectionName":"Politics","webPublicationDate":"2018-07-09T16:57:33Z","webTitle":"Brexit developments – or not | Letters ","webUrl":"https://www.theguardian.com/politics/2018/jul/09/brexit-developments-or-not","apiUrl":"https://content.guardianapis.com/politics/2018/jul/09/brexit-developments-or-not","isHosted":false,"pillarId":"pillar/news","pillarName":"News"},{"id":"politics/2018/may/29/should-labour-oppose-brexit","type":"article","sectionId":"politics","sectionName":"Politics","webPublicationDate":"2018-05-29T17:23:29Z","webTitle":"Should Labour oppose Brexit? | Letters","webUrl":"https://www.theguardian.com/politics/2018/may/29/should-labour-oppose-brexit","apiUrl":"https://content.guardianapis.com/politics/2018/may/29/should-labour-oppose-brexit","isHosted":false,"pillarId":"pillar/news","pillarName":"News"},{"id":"world/2018/jul/30/monday-briefing-thinktank-in-brexit-influencing-game","type":"article","sectionId":"world","sectionName":"World news","webPublicationDate":"2018-07-30T05:31:56Z","webTitle":"Monday briefing: thinktank in ‘Brexit-influencing game’","webUrl":"https://www.theguardian.com/world/2018/jul/30/monday-briefing-thinktank-in-brexit-influencing-game","apiUrl":"https://content.guardianapis.com/world/2018/jul/30/monday-briefing-thinktank-in-brexit-influencing-game","isHosted":false,"pillarId":"pillar/news","pillarName":"News"},{"id":"politics/ng-interactive/2017/jul/20/where-are-we-up-to-in-these-brexit-talks","type":"interactive","sectionId":"politics","sectionName":"Politics","webPublicationDate":"2018-07-27T08:43:14Z","webTitle":"Where do the Brexit negotiations stand?","webUrl":"https://www.theguardian.com/politics/ng-interactive/2017/jul/20/where-are-we-up-to-in-these-brexit-talks","apiUrl":"https://content.guardianapis.com/politics/ng-interactive/2017/jul/20/where-are-we-up-to-in-these-brexit-talks","isHosted":false,"pillarId":"pillar/news","pillarName":"News"},{"id":"tv-and-radio/2018/jul/15/radio-podcasts-politics-brexit-remainiacs-ed-miliband","type":"article","sectionId":"tv-and-radio","sectionName":"Television & radio","webPublicationDate":"2018-07-15T06:00:02Z","webTitle":"The week in radio and podcasts: Remainiacs; Brexitcast; Brexit Means…; Chopper’s Brexit Podcast; Ed Miliband","webUrl":"https://www.theguardian.com/tv-and-radio/2018/jul/15/radio-podcasts-politics-brexit-remainiacs-ed-miliband","apiUrl":"https://content.guardianapis.com/tv-and-radio/2018/jul/15/radio-podcasts-politics-brexit-remainiacs-ed-miliband","isHosted":false,"pillarId":"pillar/arts","pillarName":"Arts"},{"id":"politics/2018/jul/26/eight-months-to-brexit-what-happens-next","type":"article","sectionId":"politics","sectionName":"Politics","webPublicationDate":"2018-07-26T06:00:29Z","webTitle":"Eight months to Brexit: what happens next?","webUrl":"https://www.theguardian.com/politics/2018/jul/26/eight-months-to-brexit-what-happens-next","apiUrl":"https://content.guardianapis.com/politics/2018/jul/26/eight-months-to-brexit-what-happens-next","isHosted":false,"pillarId":"pillar/news","pillarName":"News"},{"id":"politics/commentisfree/2018/apr/13/expats-rights-after-brexit","type":"article","sectionId":"politics","sectionName":"Politics","webPublicationDate":"2018-04-13T15:25:42Z","webTitle":"Expats’ rights after Brexit | Letters","webUrl":"https://www.theguardian.com/politics/commentisfree/2018/apr/13/expats-rights-after-brexit","apiUrl":"https://content.guardianapis.com/politics/commentisfree/2018/apr/13/expats-rights-after-brexit","isHosted":false,"pillarId":"pillar/news","pillarName":"News"},{"id":"politics/2018/jul/17/how-can-the-brexit-stalemate-be-broken","type":"article","sectionId":"politics","sectionName":"Politics","webPublicationDate":"2018-07-17T20:47:54Z","webTitle":"How can the Brexit stalemate be broken?","webUrl":"https://www.theguardian.com/politics/2018/jul/17/how-can-the-brexit-stalemate-be-broken","apiUrl":"https://content.guardianapis.com/politics/2018/jul/17/how-can-the-brexit-stalemate-be-broken","isHosted":false,"pillarId":"pillar/news","pillarName":"News"},{"id":"politics/2018/jul/17/should-there-be-a-second-brexit-referendum","type":"article","sectionId":"politics","sectionName":"Politics","webPublicationDate":"2018-07-17T16:43:15Z","webTitle":"Should there be a second Brexit referendum? | Letters","webUrl":"https://www.theguardian.com/politics/2018/jul/17/should-there-be-a-second-brexit-referendum","apiUrl":"https://content.guardianapis.com/politics/2018/jul/17/should-there-be-a-second-brexit-referendum","isHosted":false,"pillarId":"pillar/news","pillarName":"News"},{"id":"politics/2018/jul/16/back-second-brexit-vote-says-conservative-mp-justine-greening","type":"article","sectionId":"politics","sectionName":"Politics","webPublicationDate":"2018-07-16T10:29:41Z","webTitle":"Justine Greening endorses second Brexit referendum","webUrl":"https://www.theguardian.com/politics/2018/jul/16/back-second-brexit-vote-says-conservative-mp-justine-greening","apiUrl":"https://content.guardianapis.com/politics/2018/jul/16/back-second-brexit-vote-says-conservative-mp-justine-greening","isHosted":false,"pillarId":"pillar/news","pillarName":"News"}]}}